{
  "profiles": {
    "OnlinePizzaWebApplication": {
      "commandName": "Project",
      "launchBrowser": true,
      "environmentVariables": {
        "ASPNETCORE_ENVIRONMENT": "Development"
      },
      "applicationUrl": "https://localhost:1435;http://localhost:1436"
    }
  }
}